2181263440;2181263440;2181263440;23;;szt;;1;2852.12;4250.50
7216276746;7216276746;7216276746;23;;szt;;1;2583.41;3850.05
6211283179;6211283179;6211283179;23;;szt;;1;3141.60;4681.91
7216276352;7216276352;7216276352;23;;szt;;1;5105.98;7609.43
7218281130;7218281130;7218281130;23;;szt;;1;1917.01;2856.92
7218281236;7218281236;7218281236;23;;szt;;1;1692.61;2522.50
2266415341;2266415341;2266415341;23;;szt;;1;2692.80;4013.06
5206202273;5206202273;5206202273;23;;szt;;1;2872.32;4280.60
6142461964;6142461964;6142461964;23;;szt;;1;1821.91;2715.19
7216276952;7216276952;7216276952;23;;szt;;1;2782.56;4146.83
6211283346;6211283346;6211283346;23;;szt;;1;3666.98;5464.88
6211282321;6211282321;6211282321;23;;szt;;1;2346.58;3497.10
6211281486;6211281486;6211281486;23;;szt;;1;4780.07;7123.72
5206202936;5206202936;5206202936;23;;szt;;1;4392.46;6546.07
1182263250;1182263250;1182263250;23;;szt;;1;1805.88;2691.30
2175844127;2175844127;2175844127;23;;szt;;1;1777.74;2649.37
2185234089;2185234089;2185234089;23;;szt;;1;2102.95;3134.01
6182080715;6182080715;6182080715;23;;szt;;1;14067.37;20964.55
7218280803;7218280803;7218280803;23;;szt;;1;2890.27;4307.36
2257767354;2257767354;2257767354;23;;szt;;1;4461.46;6648.89
2256090289;2256090289;2256090289;23;;szt;;1;14725.36;21945.15
6241971778;6241971778;6241971778;23;;szt;;1;8853.81;13194.81
2247885102;2247885102;2247885102;23;;szt;;1;1849.34;2756.06
1249708154;1249708154;1249708154;23;;szt;;1;3998.27;5958.60
5243483370;5243483370;5243483370;23;;szt;;1;4345.52;6476.11
6171962785;6171962785;6171962785;23;;szt;;1;2798.26;4170.24
2246104527;2246104527;2246104527;23;;szt;;1;6253.27;9319.23
1235673117;1235673117;1235673117;23;;szt;;1;4875.67;7266.19
6211283758;6211283758;6211283758;23;;szt;;1;2915.06;4344.30
7216277484;7216277484;7216277484;23;;szt;;1;3875.35;5775.42
2268562556;2268562556;2268562556;23;;szt;;1;1884.96;2809.15
2226209914;2226209914;2226209914;23;;szt;;1;8796.47;13109.34
6235156924;6235156924;6235156924;23;;szt;;1;3056.11;4554.51
