219697921;219697921;219697921;23;;szt;0.29;1;1144.89;1844.34
2000000092997;008JI2;008JI2;23;;szt;;1;150.97;280.67
2000000093000;008JI2;008JI2;23;;szt;;1;150.97;280.67
2000000093017;008JI2;008JI2;23;;szt;;1;150.97;280.67
2000000093024;008JI2;008JI2;23;;szt;;1;150.97;280.67
2000000093031;008JI2;008JI2;23;;szt;;1;150.97;280.67
2000000093048;008JI2;008JI2;23;;szt;;1;150.97;280.67
2000000093055;008JI2;008JI2;23;;szt;;1;150.97;280.67
2000000093062;008JI2;008JI2;23;;szt;;1;150.97;280.67
2000000093079;008JI2;008JI2;23;;szt;;1;150.97;280.67
2000000093086;008JI2;008JI2;23;;szt;;1;150.97;280.67
2000000093093;008JI2;008JI2;23;;szt;;1;150.97;280.67
2000000093109;008JI2;008JI2;23;;szt;;1;150.97;280.67
